; Engine configuration file.
; It's best edited using the editor UI and not directly,
; since the parameters that go here are not all obvious.
;
; Format:
;   [section] ; section goes between []
;   param=value ; assign values to parameters

config_version=5

[application]

config/name="Tutorial1"
run/main_scene="res://assets/menu/Menu.tscn"
config/features=PackedStringArray("4.0", "Forward Plus")
config/icon="res://icon.svg"

[autoload]

GLOBAL="*res://Global.gd"

[display]

window/size/viewport_width=144
window/size/viewport_height=256
window/handheld/orientation=1
