[gd_scene load_steps=7 format=3 uid="uid://caoqarhmy8745"]

[ext_resource type="Script" path="res://assets/player/Shoot.gd" id="1_pvqqh"]
[ext_resource type="Texture2D" uid="uid://cwtdglvw4k66b" path="res://assets/player/sprites/shot-1.png" id="2_7ibii"]
[ext_resource type="Texture2D" uid="uid://cgwsm1368g40b" path="res://assets/player/sprites/shot-2.png" id="3_pbd1y"]
[ext_resource type="AudioStream" uid="uid://cxisobsm7s42p" path="res://assets/player/sounds/Shoot.ogg" id="4_vspoa"]

[sub_resource type="SpriteFrames" id="SpriteFrames_qtlwg"]
animations = [{
"frames": [{
"duration": 1.0,
"texture": ExtResource("2_7ibii")
}, {
"duration": 1.0,
"texture": ExtResource("3_pbd1y")
}],
"loop": true,
"name": &"Shoot",
"speed": 5.0
}]

[sub_resource type="RectangleShape2D" id="RectangleShape2D_ymcb2"]
size = Vector2(5, 12)

[node name="Shoot" type="Area2D" groups=["shoot"]]
script = ExtResource("1_pvqqh")

[node name="AnimatedSprite2D" type="AnimatedSprite2D" parent="."]
sprite_frames = SubResource("SpriteFrames_qtlwg")
animation = &"Shoot"

[node name="CollisionShape2D" type="CollisionShape2D" parent="."]
position = Vector2(-0.5, 0)
shape = SubResource("RectangleShape2D_ymcb2")

[node name="SoundShoot" type="AudioStreamPlayer" parent="."]
stream = ExtResource("4_vspoa")
volume_db = -15.0

[node name="VisibleOnScreenNotifier2D" type="VisibleOnScreenNotifier2D" parent="."]
rect = Rect2(-3, -6, 5, 12)

[connection signal="area_entered" from="." to="." method="_on_area_entered"]
[connection signal="screen_exited" from="VisibleOnScreenNotifier2D" to="." method="_on_visible_on_screen_notifier_2d_screen_exited"]
